{
  "show_video": true,
  "canonical": "/hasit-bhatt-ccq/quotes",
  "posts": [{
    "image_large": "https://media.images.yourquote.in/post/720/0/0/97/48/4bK22669.webp",
    "is_featured": false,
    "text": "अरे खुद ही बुला लो, देखो कि कब आती है,\nआयी है जब भी, अपनी फ़ुरसत से ही आती है ।\n\nहर बार कोई नया किस्सा, नई कहानी,\nया फिर वाकया पुराना, नयी जुबानी ।\nवह सज धज के जब चली आती है,\nखयाल होती है, सोच बन जाती है ॥",
    "height": 1,
    "is_purchased": false,
    "has_mention": false,
    "title": "",
    "video_path": "",
    "is_pinned": false,
    "width": 1,
    "comment_count": 1,
    "is_private": false,
    "media_type": "i",
    "share_count": 0,
    "is_story": false,
    "is_edited": false,
    "timestamp": "8 DEC 2020 AT 1:12",
    "link": "https://www.yourquote.in/hasit-bhatt-ccq/quotes/khud-hii-bulaa-lo-dekho-ki-kb-aatii-hai-aayii-hai-jb-bhii-se-bv2fhq",
    "is_testimonial": false,
    "is_deleted": false,
    "has_liked": false,
    "categories": ["lif", "shy"],
    "can_collab": true,
    "video_count": 0,
    "image_medium": "https://media.images.yourquote.in/post/360/0/0/97/48/4bK25743.webp",
    "published_datetime": "2020-12-07T19:42:36Z",
    "collab_can_invite": false,
    "has_recommended": false,
    "can_collab_error_msg": "",
    "has_subscribed": false,
    "can_comment": true,
    "collab_can_write": true,
    "has_flagged": false,
    "like_count": 25,
    "is_following": false,
    "share_data": {},
    "id": "bv2fhq",
    "collab_can_write_error_msg": "",
    "muted_tags": [],
    "score": 20201304242943,
    "only_purchase": false,
    "has_commented": false,
    "has_bookmarked": false,
    "story_data": {},
    "media_type_actual": "i",
    "user": {
      "username": "",
      "badge_v2": {
        "has_listed": false,
        "label": ""
      },
      "highlights_start_position": 0,
      "current_streak": 0,
      "highlights_count": 0,
      "link": "https://www.yourquote.in/hasit-bhatt-ccq/quotes",
      "id": "ccq",
      "name": "Hasit Bhatt",
      "highlights": [],
      "image_small": "https://lh5.googleusercontent.com/-3NW5cPDVNqQ/AAAAAAAAAAI/AAAAAAAADAs/-7dP9DBsYoI/s96-c/photo.jpg",
      "slug": "hasit-bhatt",
      "badge": "default"
    },
    "is_deleted_by_admin": false,
    "slug": "khud-hii-bulaa-lo-dekho-ki-kb-aatii-hai-aayii-hai-jb-bhii-se",
    "can_edit": false,
    "buy_link": "",
    "is_owner": false,
    "caption": "#hasitpbhatt ",
    "mentions": []
  }],
  "user": {
    "image_large": "https://lh5.googleusercontent.com/-3NW5cPDVNqQ/AAAAAAAAAAI/AAAAAAAADAs/-7dP9DBsYoI/s96-c/photo.jpg",
    "is_following": false,
    "is_deactivated": false,
    "cover_small": "https://media.images.yourquote.in/user/cover/720/0/0/0/0/jY312725.jpg",
    "top_tags": ["hasitpbhatt", "yqdidi", "yqbaba", "life", "hindi"],
    "id": "ccq",
    "date_joined": "Joined 30 August 2016",
    "can_post": true,
    "pen_name": "",
    "followers_count": 4319,
    "is_verified": false,
    "badge": "default",
    "website": "http://instagram.com/hasitpbhatt",
    "bio": "Just another Homo sapien who thinks he can write (to be honest, I seriously doubt it).\n\nHave 28 years of experience with life.\n\nअभी पिछले पन्नें की स्याही तो सूखी नहीं है, \nपर एक और पन्ना लिखने चला हूँ। \n\nचाहें मैं लिखूँ वही सब, जो पहले भी लिखा है, \nया फिर कुछ नया। \nक्या लिखने वाला हूँ, पता नहीं, \nपर एक और पन्ना लिखने चला हूँ ॥\n\nहर एक अक्षर है मेरे बढ़ते कदम मौत की ओर, \nफिर भी ख्वाहिश है दिल में और लिखने की। \nउतनी स्याही तो नहीं बची है मुझमें, \nपर एक और पन्ना लिखने चला हूँ ॥\n\nगर लिखता ही रहा तो खत्म जल्दी हो जाऊँगा, \nपर आज जिंदा हूँ, क्योंकि लिखता हूँ। \nलिख रहा हूँ, या लिखवा रहा है कोई, पता नहीं, \nपर एक और पन्ना लिखने चला हूँ ॥\n\nAnd, why do I not write everyday?\n\"तो अब लिखें क्या हर रोज़,\n कि किस्सा हर शाम होता है, \n निकलती है चीख सिर्फ़ तब, \n जब दर्द़ बेशुमार होता है...॥\"",
    "cover_large": "https://media.images.yourquote.in/user/cover/1080/0/0/0/0/jY312355.jpg",
    "has_subscribed": false,
    "posts_count": 270,
    "testimonial_count": 0,
    "slug": "hasit-bhatt",
    "name": "Hasit Bhatt",
    "is_anonymous": false,
    "gender": "M",
    "owned_tags": [],
    "image_small": "https://lh5.googleusercontent.com/-3NW5cPDVNqQ/AAAAAAAAAAI/AAAAAAAADAs/-7dP9DBsYoI/s96-c/photo.jpg",
    "follow_has_marked": false,
    "followings_count": 186,
    "is_published": false
  },
  "page": {
    "has_next": true,
    "start_pagination_value": 20210217366272,
    "total_count": 270,
    "current_page": 1,
    "page_size": 10,
    "label": "",
    "end_pagination_value": 20201304242943
  }
}